^Z:\DEVELOPER\3D_VIEWER\WINDOWS\3D_VIEWER\3D_VIEWER\DISPLAY.CPP|Z:\DEVELOPER\3D_VIEWER\WINDOWS\3D_VIEWER\3D_VIEWER\MAIN.CPP
Z:\DEVELOPER\3D_VIEWER\WINDOWS\3D_VIEWER\3D_VIEWER\DEBUG\VC141.PDB
Z:\DEVELOPER\3D_VIEWER\WINDOWS\3D_VIEWER\3D_VIEWER\DEBUG\VC141.IDB
Z:\DEVELOPER\3D_VIEWER\WINDOWS\3D_VIEWER\3D_VIEWER\DEBUG\MAIN.OBJ
Z:\DEVELOPER\3D_VIEWER\WINDOWS\3D_VIEWER\3D_VIEWER\DEBUG\DISPLAY.OBJ
^Z:\DEVELOPER\3D_VIEWER\WINDOWS\3D_VIEWER\3D_VIEWER\DISPLAY.CPP|Z:\DEVELOPER\3D_VIEWER\WINDOWS\3D_VIEWER\3D_VIEWER\MAIN.CPP|Z:\DEVELOPER\3D_VIEWER\WINDOWS\3D_VIEWER\3D_VIEWER\SHADER.CPP
Z:\DEVELOPER\3D_VIEWER\WINDOWS\3D_VIEWER\3D_VIEWER\DEBUG\VC141.PDB
Z:\DEVELOPER\3D_VIEWER\WINDOWS\3D_VIEWER\3D_VIEWER\DEBUG\VC141.IDB
Z:\DEVELOPER\3D_VIEWER\WINDOWS\3D_VIEWER\3D_VIEWER\DEBUG\SHADER.OBJ
Z:\DEVELOPER\3D_VIEWER\WINDOWS\3D_VIEWER\3D_VIEWER\DEBUG\MAIN.OBJ
Z:\DEVELOPER\3D_VIEWER\WINDOWS\3D_VIEWER\3D_VIEWER\DEBUG\DISPLAY.OBJ
^Z:\DEVELOPER\3D_VIEWER\WINDOWS\3D_VIEWER\3D_VIEWER\MAIN.CPP
Z:\DEVELOPER\3D_VIEWER\WINDOWS\3D_VIEWER\3D_VIEWER\DEBUG\VC141.PDB
^Z:\DEVELOPER\3D_VIEWER\WINDOWS\3D_VIEWER\3D_VIEWER\SHADER.CPP
Z:\DEVELOPER\3D_VIEWER\WINDOWS\3D_VIEWER\3D_VIEWER\DEBUG\VC141.PDB
Z:\DEVELOPER\3D_VIEWER\WINDOWS\3D_VIEWER\3D_VIEWER\DEBUG\VC141.IDB
Z:\DEVELOPER\3D_VIEWER\WINDOWS\3D_VIEWER\3D_VIEWER\DEBUG\SHADER.OBJ
^Z:\DEVELOPER\3D_VIEWER\WINDOWS\3D_VIEWER\3D_VIEWER\DISPLAY.CPP
Z:\DEVELOPER\3D_VIEWER\WINDOWS\3D_VIEWER\3D_VIEWER\DEBUG\VC141.PDB
Z:\DEVELOPER\3D_VIEWER\WINDOWS\3D_VIEWER\3D_VIEWER\DEBUG\VC141.IDB
Z:\DEVELOPER\3D_VIEWER\WINDOWS\3D_VIEWER\3D_VIEWER\DEBUG\DISPLAY.OBJ
